{
  "disabled": false,
  "scriptFile": "..\\bin\\JB2.MainProc.dll",
  "entryPoint": "JB2.MainProc.EventDataProcessing.Run",
  "bindings": [
    {
      "name": "queueMessage",
      "type": "queueTrigger",
      "direction": "in",
      "queueName": "event-processing",
      "connection": "PrivateStorageAccount"
    },
    {
      "type": "eventHub",
      "name": "tramissionEventHub",
      "connection": "EventHubConnStr",
      "path": "transmission",
      "direction": "out"
    },
    {
      "type": "documentDB",
      "name": "dbClient",
      "databaseName": "jb2-db",
      "connection": "DocumentDbConnStr",
      "direction": "in"
    },
    {
      "name": "sensorOutputBlob",
      "type": "blob",
      "direction": "in",
      "path": "sensor",
      "connection": "PrivateStorageAccount"
    },
    {
      "name": "videoOutputBlob",
      "type": "blob",
      "direction": "in",
      "path": "video",
      "connection": "PrivateStorageAccount"
    },
    {
      "name": "iothubBlobContainer",
      "type": "blob",
      "direction": "in",
      "path": "iothub",
      "connection": "PrivateStorageAccount"
    },
    {
      "name": "sensorDataContainer",
      "type": "blob",
      "direction": "in",
      "path": "sensordata",
      "connection": "PrivateStorageAccount"
    }
  ]
}