{
  "$schema": "https://schema.management.azure.com/schemas/2015-01-01/deploymentTemplate.json#",
  "contentVersion": "1.0.0.0",
  "parameters": {
    "prefix": {
      "type": "string",
      "metadata": {
        "description": "The prefix of resource group"
      }
    },
    "appInsRegion": {
      "defaultValue": "southeastasia",
      "type": "string"
    },
    "consumptionPlan": {
      "defaultValue": "ConsumptionPlan",
      "type": "string",
      "metadata": {
        "description": "The name of consumption Plan (function Api + function RecoveryProc )"
      }
    },
    "functionNameRecoveryProc": {
      "defaultValue": "recoveryproc",
      "type": "string",
      "metadata": {
        "description": "The name of the function app that you wish to create."
      }
    },
    "functionNameApi": {
      "defaultValue": "api",
      "type": "string",
      "metadata": {
        "description": "The name of the function app that you wish to create."
      }
    },
    "appInsNameApi": {
      "defaultValue": "api-ai",
      "type": "string",
      "metadata": {
        "description": ""
      }
    },
    "appServicePlanDrive": {
      "defaultValue": "drive",
      "type": "string",
      "metadata": {
        "description": "The name of App Service Plan Drive (function driveproc + function dataproc)."
      }
    },
    "functionNameDriveProc": {
      "defaultValue": "driveproc",
      "type": "string",
      "metadata": {
        "description": "The name of the function app that you wish to create."
      }
    },
    "webAppName": {
      "defaultValue": "javacalc",
      "type": "string",
      "metadata": {
        "description": "The webAppName name."
      }
    },
    "appInsNameDriveProc": {
      "defaultValue": "driveproc-ai",
      "type": "string",
      "metadata": {
        "description": ""
      }
    },
    "appServicePlanMain": {
      "defaultValue": "main",
      "type": "string",
      "metadata": {
        "description": "The name of App Service Plan Main (function mainproc + eventviewer)."
      }
    },
    "functionNameMainProc": {
      "defaultValue": "mainproc",
      "type": "string",
      "metadata": {
        "description": "The name of the function app that you wish to create."
      }
    },
    "appInsNameMainProc": {
      "defaultValue": "mainproc-ai",
      "type": "string",
      "metadata": {
        "description": ""
      }
    },
    "functionNameHealthCheck": {
      "defaultValue": "healthcheck",
      "type": "string",
      "metadata": {
        "description": "The name of the function app that you wish to create."
      }
    },
    "appInsNameHealthCheck": {
      "defaultValue": "healthcheck-ai",
      "type": "string",
      "metadata": {
        "description": ""
      }
    },
    "iotHubName": {
      "defaultValue": "iothub",
      "type": "string",
      "metadata": {
        "description": "The IoTHub name."
      }
    },
    "namespaceInternalEventHub": {
      "defaultValue": "internal",
      "type": "string",
      "metadata": {
        "description": "Name of the EventHub namespace"
      }
    },
    "eventHubNameIoTdrive": {
      "defaultValue": "iot-drive",
      "type": "string",
      "metadata": {
        "description": "Name of the Event Hub"
      }
    },
    "eventHubNameIoTmessage": {
      "defaultValue": "iot-message",
      "type": "string",
      "metadata": {
        "description": "Name of the Event Hub"
      }
    },
    "eventHubNameTransmission": {
      "defaultValue": "transmission",
      "type": "string",
      "metadata": {
        "description": "Name of the Event Hub"
      }
    },
    "eventHubNameIoTdrivePoison": {
      "defaultValue": "iot-drive-poison",
      "type": "string",
      "metadata": {
        "description": "Name of the Event Hub"
      }
    },
    "eventHubNameIoTmessagePoison": {
      "defaultValue": "iot-message-poison",
      "type": "string",
      "metadata": {
        "description": "Name of the Event Hub"
      }
    },
    "eventHubNameTransmissionPoison": {
      "defaultValue": "transmission-poison",
      "type": "string",
      "metadata": {
        "description": "Name of the Event Hub"
      }
    },
    "namespaceScomEventHub": {
      "defaultValue": "scom",
      "type": "string",
      "metadata": {
        "description": "Name of the EventHub namespace"
      }
    },
    "eventHubNamedrive": {
      "defaultValue": "drive",
      "type": "string",
      "metadata": {
        "description": "Name of the Event Hub"
      }
    },
    "eventHubNamemessage": {
      "defaultValue": "message",
      "type": "string",
      "metadata": {
        "description": "Name of the Event Hub"
      }
    },
    "consumerGroupfpt": {
      "defaultValue": "fpt",
      "type": "string",
      "metadata": {
        "description": "Name of the Consumer Group"
      }
    },
    "consumerGroupjenkins": {
      "defaultValue": "jenkins",
      "type": "string",
      "metadata": {
        "description": "Name of the Consumer Group"
      }
    },
    "consumerGrouptcs": {
      "defaultValue": "tcs",
      "type": "string",
      "metadata": {
        "description": "Name of the Consumer Group"
      }
    },
    "consumerGroupKitting": {
      "defaultValue": "kitting",
      "type": "string",
      "metadata": {
        "description": "Name of the Consumer Group"
      }
    },
    "consumerGroupHealthcheck": {
      "defaultValue": "healthcheck",
      "type": "string",
      "metadata": {
        "description": "Name of the Consumer Group"
      }
    },
    "storageNameApp": {
      "defaultValue": "app",
      "type": "string",
      "metadata": {
        "description": "Storage Name"
      }
    },
    "storageNamePlatform": {
      "defaultValue": "platform",
      "type": "string",
      "metadata": {
        "description": "Storage Name"
      }
    },
    "databaseAccountName": {
      "defaultValue": "db",
      "type": "string",
      "metadata": {
        "description": "The DocumentDB database account name."
      }
    }
  },
  "variables": {
    "location": "[resourceGroup().location]",
    "appInsRegion": "[parameters('appInsRegion')]",
    "consumptionPlanVersion": "2015-04-01",
    "appServicePlanVersion": "2016-09-01",
    "functionAppVersion": "2015-08-01",
    "webAppVersion": "2015-08-01",
    "appInsVersion": "2014-04-01",
    "consumptionPlan": "[parameters('consumptionPlan')]",
    "functionAppNameApi": "[concat(parameters('prefix'),'-',parameters('functionNameApi'))]",
    "appInsNameApi": "[concat(parameters('prefix'),'-',parameters('appInsNameApi'))]",
    "appServicePlanDrive": "[concat(parameters('prefix'),'-',parameters('appServicePlanDrive'))]",
    "functionNameDriveProc": "[concat(parameters('prefix'),'-',parameters('functionNameDriveProc'))]",
    "webAppName": "[concat(parameters('prefix'),'-',parameters('webAppName'))]",
    "appInsNameDriveProc": "[concat(parameters('prefix'),'-',parameters('appInsNameDriveProc'))]",
    "appServicePlanMain": "[concat(parameters('prefix'),'-',parameters('appServicePlanMain'))]",
    "functionNameMainProc": "[concat(parameters('prefix'),'-',parameters('functionNameMainProc'))]",
    "appInsNameMainProc": "[concat(parameters('prefix'),'-',parameters('appInsNameMainProc'))]",
    "functionNameHealthCheck": "[concat(parameters('prefix'),'-',parameters('functionNameHealthCheck'))]",
    "appInsNameHealthCheck": "[concat(parameters('prefix'),'-',parameters('appInsNameHealthCheck'))]",
    "functionAppNameRecoveryProc": "[concat(parameters('prefix'),'-',parameters('functionNameRecoveryProc'))]",
    "iotHubVersion": "2016-02-03",
    "iotHubName": "[concat(parameters('prefix'),'-',parameters('iotHubName'))]",
    "sendPolicy": "[concat('iothubroutes_',variables('iotHubName'))]",
    "routingDrive": "[concat(variables('namespaceInternalEventHub'), '/', parameters('eventHubNameIoTdrive'), '/', variables('sendPolicy'))]",
    "routingEvent": "[concat(variables('namespaceInternalEventHub'), '/', parameters('eventHubNameIoTmessage'), '/', variables('sendPolicy'))]",
    "namespaceEventHubVersion": "2017-04-01",
    "namespaceInternalEventHub": "[concat(parameters('prefix'),'-',parameters('namespaceInternalEventHub'))]",
    "authEventHub": "[resourceId('Microsoft.EventHub/namespaces/authorizationRules', variables('namespaceInternalEventHub'),'RootManageSharedAccessKey')]",
    "namespaceScomEventHub": "[concat(parameters('prefix'),'-',parameters('namespaceScomEventHub'))]",
    "authScomEventHub": "[resourceId('Microsoft.EventHub/namespaces/authorizationRules', variables('namespaceScomEventHub'),'RootManageSharedAccessKey')]",
    "storageAccountVersion": "2018-07-01",
    "prefixStorage": "[replace(parameters('prefix'),'-', '')]",
    "storageAccountNameApp": "[concat(variables('prefixStorage'),parameters('storageNameApp'))]",
    "storageAccountidApp": "[concat(resourceGroup().id,'/providers/','Microsoft.Storage/storageAccounts/', variables('storageAccountNameApp'))]",
    "storageAccountNamePlatform": "[concat(variables('prefixStorage'),parameters('storageNamePlatform'))]",
    "storageAccountidPlatform": "[concat(resourceGroup().id,'/providers/','Microsoft.Storage/storageAccounts/', variables('storageAccountNamePlatform'))]",
    "databaseAccountVersion": "2015-04-08",
    "databaseAccountName": "[concat(parameters('prefix'),'-',parameters('databaseAccountName'))]"
  },
  "resources": [
    {
      "type": "Microsoft.Web/serverfarms",
      "name": "[variables('consumptionPlan')]",
      "apiVersion": "[variables('consumptionPlanVersion')]",
      "location": "[resourceGroup().location]",
      "properties": {
        "name": "[variables('consumptionPlan')]",
        "computeMode": "Dynamic",
        "sku": "Dynamic"
      }
    },
    {
      "type": "Microsoft.Web/sites",
      "kind": "functionapp",
      "name": "[variables('functionAppNameApi')]",
      "apiVersion": "[variables('functionAppVersion')]",
      "location": "[resourceGroup().location]",
      "properties": {
        "serverFarmId": "[resourceId('Microsoft.Web/serverfarms', variables('consumptionPlan'))]",
        "clientAffinityEnabled": false,
        "siteConfig": {
          "appSettings": [
            {
              "name": "AccessKey1",
              "value": "---"
            },
            {
              "name": "AccessKey2",
              "value": "---"
            },
            {
              "name": "APPINSIGHTS_INSTRUMENTATIONKEY",
              "value": "[reference(resourceId('Microsoft.Insights/components', variables('appInsNameApi')), variables('appInsVersion')).InstrumentationKey]"
            },
            {
              "name": "PrivateStorageAccount",
              "value": "[concat('DefaultEndpointsProtocol=https;AccountName=', variables('storageAccountNameApp'), ';AccountKey=', listKeys(variables('storageAccountidApp'),'2015-05-01-preview').key1)]"
            },
            {
              "name": "AzureWebJobsStorage",
              "value": "[concat('DefaultEndpointsProtocol=https;AccountName=', variables('storageAccountNamePlatform'), ';AccountKey=', listKeys(variables('storageAccountidPlatform'),'2015-05-01-preview').key1)]"
            },
            {
              "name": "AzureWebJobsDashboard",
              "value": "[concat('DefaultEndpointsProtocol=https;AccountName=', variables('storageAccountNamePlatform'), ';AccountKey=', listKeys(variables('storageAccountidPlatform'),'2015-05-01-preview').key1)]"
            },
            {
              "name": "FUNCTION_APP_EDIT_MODE",
              "value": "readwrite"
            },
            {
              "name": "FUNCTIONS_EXTENSION_VERSION",
              "value": "~1"
            },
            {
              "name": "WEBSITE_CONTENTAZUREFILECONNECTIONSTRING",
              "value": "[concat('DefaultEndpointsProtocol=https;AccountName=', variables('storageAccountNamePlatform'), ';AccountKey=', listKeys(variables('storageAccountidPlatform'),'2015-05-01-preview').key1)]"
            },
            {
              "name": "WEBSITE_CONTENTSHARE",
              "value": "[toLower(variables('functionAppNameApi'))]"
            },
            {
              "name": "WEBSITE_NODE_DEFAULT_VERSION",
              "value": "6.5.0"
            }
          ]
        }
      },
      "resources": [
        {
          "type": "config",
          "name": "web",
          "apiVersion": "2015-08-01",
          "properties": {
            "scmType": "LocalGit"
          },
          "dependsOn": [
            "[concat('Microsoft.Web/sites/', variables('functionAppNameApi'))]"
          ]
        }
      ],
      "dependsOn": [
        "[resourceId('Microsoft.Web/serverfarms', variables('consumptionPlan'))]",
        "[resourceId('Microsoft.Storage/storageAccounts', variables('storageAccountNamePlatform'))]"
      ]
    },
    {
      "type": "Microsoft.Insights/components",
      "name": "[variables('appInsNameApi')]",
      "apiVersion": "[variables('appInsVersion')]",
      "location": "[variables('appInsRegion')]",
      "properties": {
        "ApplicationId": "[variables('appInsNameApi')]"
      }
    },
    {
      "type": "Microsoft.Web/serverfarms",
      "sku": {
        "name": "B1",
        "tier": "Basic",
        "size": "B1",
        "family": "B",
        "capacity": 1
      },
      "kind": "app",
      "name": "[variables('appServicePlanDrive')]",
      "apiVersion": "[variables('appServicePlanVersion')]",
      "location": "[resourceGroup().location]",
      "properties": {
        "name": "[variables('appServicePlanDrive')]",
        "perSiteScaling": false,
        "reserved": false,
        "targetWorkerCount": 0,
        "targetWorkerSizeId": 0
      },
      "dependsOn": []
    },
    {
      "type": "Microsoft.Web/sites",
      "kind": "functionapp",
      "name": "[variables('functionNameDriveProc')]",
      "apiVersion": "[variables('functionAppVersion')]",
      "location": "[resourceGroup().location]",
      "properties": {
        "serverFarmId": "[resourceId('Microsoft.Web/serverfarms', variables('appServicePlanDrive'))]",
        "clientAffinityEnabled": false,
        "siteConfig": {
          "appSettings": [
            {
              "name": "APPINSIGHTS_INSTRUMENTATIONKEY",
              "value": "[reference(resourceId('Microsoft.Insights/components', variables('appInsNameDriveProc')), variables('appInsVersion')).InstrumentationKey]"
            },
            {
              "name": "AzureWebJobsDashboard",
              "value": "[concat('DefaultEndpointsProtocol=https;AccountName=', variables('storageAccountNamePlatform'), ';AccountKey=', listKeys(variables('storageAccountidPlatform'),'2015-05-01-preview').key1)]"
            },
            {
              "name": "AzureWebJobsStorage",
              "value": "[concat('DefaultEndpointsProtocol=https;AccountName=', variables('storageAccountNamePlatform'), ';AccountKey=', listKeys(variables('storageAccountidPlatform'),'2015-05-01-preview').key1)]"
            },
            {
              "name": "DocumentDbConnStr",
              "value": "[concat('AccountEndpoint=https://', variables('databaseAccountName'), '.documents.azure.com:443/;AccountKey=', listKeys(resourceId('Microsoft.DocumentDB/databaseAccounts', variables('databaseAccountName')), '2015-04-08').primaryMasterKey,';')]"
            },
            {
              "name": "DriveCaculatorUrl",
              "value": "[concat('http://', reference(resourceId('Microsoft.Web/sites', variables('webAppName'))).hostNames[0])]"
            },
            {
              "name": "EventHubConnStr",
              "value": "[listkeys(variables('authEventHub'), variables('namespaceEventHubVersion')).primaryConnectionString]"
            },
            {
              "name": "FUNCTION_APP_EDIT_MODE",
              "value": "readwrite"
            },
            {
              "name": "FUNCTIONS_EXTENSION_VERSION",
              "value": "~1"
            },
            {
              "name": "PrivateStorageAccount",
              "value": "[concat('DefaultEndpointsProtocol=https;AccountName=', variables('storageAccountNameApp'), ';AccountKey=', listKeys(variables('storageAccountidApp'),'2015-05-01-preview').key1)]"
            },
            {
              "name": "ScomEventHubConnStr",
              "value": "[listkeys(variables('authScomEventHub'), variables('namespaceEventHubVersion')).primaryConnectionString]"
            },
            {
              "name": "WEBSITE_CONTENTAZUREFILECONNECTIONSTRING",
              "value": "[concat('DefaultEndpointsProtocol=https;AccountName=', variables('storageAccountNamePlatform'), ';AccountKey=', listKeys(variables('storageAccountidPlatform'),'2015-05-01-preview').key1)]"
            },
            {
              "name": "WEBSITE_CONTENTSHARE",
              "value": "[toLower(variables('functionNameDriveProc'))]"
            },
            {
              "name": "WEBSITE_NODE_DEFAULT_VERSION",
              "value": "6.5.0"
            }
          ]
        }
      },
      "resources": [
        {
          "type": "config",
          "name": "web",
          "apiVersion": "2015-08-01",
          "properties": {
            "scmType": "LocalGit",
            "alwaysOn": true,
            "use32BitWorkerProcess": false
          },
          "dependsOn": [
            "[concat('Microsoft.Web/sites/', variables('functionNameDriveProc'))]"
          ]
        }
      ],
      "dependsOn": [
        "[resourceId('Microsoft.Web/serverfarms', variables('appServicePlanDrive'))]",
        "[resourceId('Microsoft.Storage/storageAccounts', variables('storageAccountNamePlatform'))]"
      ]
    },
    {
      "type": "Microsoft.Web/sites",
      "name": "[variables('webAppName')]",
      "apiVersion": "[variables('webAppVersion')]",
      "location": "[resourceGroup().location]",
      "tags": {
        "[concat('hidden-related:', resourceId('Microsoft.Web/serverfarms', variables('appServicePlanDrive')))]": "empty",
        "displayName": "[variables('webAppName')]"
      },
      "properties": {
        "name": "[variables('webAppName')]",
        "serverFarmId": "[resourceId('Microsoft.Web/serverfarms', variables('appServicePlanDrive'))]",
        "clientAffinityEnabled": false,
        "siteConfig": {
          "appSettings": [
            {
              "name": "APPLICATION_INSIGHTS_IKEY",
              "value": "[reference(resourceId('Microsoft.Insights/components', variables('appInsNameDriveProc')), '2014-04-01').InstrumentationKey]"
            },
            {
              "name": "WEBSITE_NODE_DEFAULT_VERSION",
              "value": "6.9.1"
            }
          ]
        }
      },
      "resources": [
        {
          "type": "config",
          "name": "web",
          "apiVersion": "2015-08-01",
          "properties": {
            "scmType": "LocalGit",
            "alwaysOn": true,
            "javaVersion": "1.8",
            "javaContainer": "TOMCAT",
            "javaContainerVersion": "8.0"
          },
          "dependsOn": [
            "[concat('Microsoft.Web/sites/', variables('webAppName'))]"
          ]
        }
      ],
      "dependsOn": [
        "[variables('appServicePlanDrive')]"
      ]
    },
    {
      "type": "Microsoft.Insights/components",
      "name": "[variables('appInsNameDriveProc')]",
      "apiVersion": "[variables('appInsVersion')]",
      "location": "[variables('appInsRegion')]",
      "properties": {
        "ApplicationId": "[variables('appInsNameDriveProc')]"
      }
    },
    {
      "type": "Microsoft.Web/serverfarms",
      "sku": {
        "name": "B1",
        "tier": "Basic",
        "size": "B1",
        "family": "B",
        "capacity": 1
      },
      "kind": "app",
      "name": "[variables('appServicePlanMain')]",
      "apiVersion": "[variables('appServicePlanVersion')]",
      "location": "[resourceGroup().location]",
      "properties": {
        "name": "[variables('appServicePlanMain')]",
        "perSiteScaling": false,
        "reserved": false,
        "targetWorkerCount": 0,
        "targetWorkerSizeId": 0
      },
      "dependsOn": []
    },
    {
      "type": "Microsoft.Web/sites",
      "kind": "functionapp",
      "name": "[variables('functionNameMainProc')]",
      "apiVersion": "[variables('functionAppVersion')]",
      "location": "[resourceGroup().location]",
      "properties": {
        "serverFarmId": "[resourceId('Microsoft.Web/serverfarms', variables('appServicePlanMain'))]",
        "clientAffinityEnabled": false,
        "siteConfig": {
          "appSettings": [
            {
              "name": "APPINSIGHTS_INSTRUMENTATIONKEY",
              "value": "[reference(resourceId('Microsoft.Insights/components', variables('appInsNameMainProc')), variables('appInsVersion')).InstrumentationKey]"
            },
            {
              "name": "AzureWebJobsDashboard",
              "value": "[concat('DefaultEndpointsProtocol=https;AccountName=', variables('storageAccountNamePlatform'), ';AccountKey=', listKeys(variables('storageAccountidPlatform'),'2015-05-01-preview').key1)]"
            },
            {
              "name": "AzureWebJobsStorage",
              "value": "[concat('DefaultEndpointsProtocol=https;AccountName=', variables('storageAccountNamePlatform'), ';AccountKey=', listKeys(variables('storageAccountidPlatform'),'2015-05-01-preview').key1)]"
            },
            {
              "name": "ConfigurationApiUrl",
              "value": "[concat('https://', variables('functionNameMainProc'),'.azurewebsites.net/api/configuration')]"
            },
            {
              "name": "DocumentDbConnStr",
              "value": "[concat('AccountEndpoint=https://', variables('databaseAccountName'), '.documents.azure.com:443/;AccountKey=', listKeys(resourceId('Microsoft.DocumentDB/databaseAccounts', variables('databaseAccountName')), '2015-04-08').primaryMasterKey,';')]"
            },
            {
              "name": "EventHubConnStr",
              "value": "[listkeys(variables('authEventHub'), variables('namespaceEventHubVersion')).primaryConnectionString]"
            },
            {
              "name": "FUNCTION_APP_EDIT_MODE",
              "value": "readwrite"
            },
            {
              "name": "FUNCTIONS_EXTENSION_VERSION",
              "value": "~1"
            },
            {
              "name": "IoTHubConnectionString",
              "value": "[concat('HostName=', reference(resourceId('Microsoft.Devices/IotHubs',variables('iotHubName')), variables('iotHubVersion')).hostName, ';SharedAccessKeyName=iothubowner;SharedAccessKey=', listKeys(resourceId('Microsoft.Devices/IotHubs',variables('iotHubName')),variables('iotHubVersion')).value[0].primaryKey)]"
            },
            {
              "name": "KittingStorageAccount",
              "value": "[concat('DefaultEndpointsProtocol=https;AccountName=', variables('storageAccountNameApp'), ';AccountKey=', listKeys(variables('storageAccountidApp'),'2015-05-01-preview').key1)]"
            },
            {
              "name": "PrivateStorageAccount",
              "value": "[concat('DefaultEndpointsProtocol=https;AccountName=', variables('storageAccountNameApp'), ';AccountKey=', listKeys(variables('storageAccountidApp'),'2015-05-01-preview').key1)]"
            },
            {
              "name": "ScomEventHubConnStr",
              "value": "[listkeys(variables('authScomEventHub'), variables('namespaceEventHubVersion')).primaryConnectionString]"
            },
            {
              "name": "WEBSITE_CONTENTAZUREFILECONNECTIONSTRING",
              "value": "[concat('DefaultEndpointsProtocol=https;AccountName=', variables('storageAccountNamePlatform'), ';AccountKey=', listKeys(variables('storageAccountidPlatform'),'2015-05-01-preview').key1)]"
            },
            {
              "name": "WEBSITE_CONTENTSHARE",
              "value": "[toLower(variables('functionNameMainProc'))]"
            },
            {
              "name": "WEBSITE_NODE_DEFAULT_VERSION",
              "value": "6.5.0"
            }
          ]
        }
      },
      "resources": [
        {
          "type": "config",
          "name": "web",
          "apiVersion": "2015-08-01",
          "properties": {
            "scmType": "LocalGit",
            "alwaysOn": true
          },
          "dependsOn": [
            "[concat('Microsoft.Web/sites/', variables('functionNameMainProc'))]"
          ]
        }
      ],
      "dependsOn": [
        "[resourceId('Microsoft.Web/serverfarms', variables('appServicePlanMain'))]",
        "[resourceId('Microsoft.Storage/storageAccounts', variables('storageAccountNamePlatform'))]"
      ]
    },
    {
      "type": "Microsoft.Insights/components",
      "name": "[variables('appInsNameMainProc')]",
      "apiVersion": "[variables('appInsVersion')]",
      "location": "[variables('appInsRegion')]",
      "properties": {
        "ApplicationId": "[variables('appInsNameMainProc')]"
      }
    },
    {
      "type": "Microsoft.Web/sites",
      "kind": "functionapp",
      "name": "[variables('functionNameHealthCheck')]",
      "apiVersion": "[variables('functionAppVersion')]",
      "location": "[resourceGroup().location]",
      "properties": {
        "serverFarmId": "[resourceId('Microsoft.Web/serverfarms', variables('appServicePlanMain'))]",
        "clientAffinityEnabled": false,
        "siteConfig": {
          "appSettings": [
            {
              "name": "AccessKey1",
              "value": "---"
            },
            {
              "name": "ApiUrl",
              "value": "---"
            },
            {
              "name": "APPINSIGHTS_INSTRUMENTATIONKEY",
              "value": "[reference(resourceId('Microsoft.Insights/components', variables('appInsNameHealthCheck')), variables('appInsVersion')).InstrumentationKey]"
            },
            {
              "name": "AzureWebJobsDashboard",
              "value": "[concat('DefaultEndpointsProtocol=https;AccountName=', variables('storageAccountNamePlatform'), ';AccountKey=', listKeys(variables('storageAccountidPlatform'),'2015-05-01-preview').key1)]"
            },
            {
              "name": "AzureWebJobsStorage",
              "value": "[concat('DefaultEndpointsProtocol=https;AccountName=', variables('storageAccountNamePlatform'), ';AccountKey=', listKeys(variables('storageAccountidPlatform'),'2015-05-01-preview').key1)]"
            },
            {
              "name": "DeviceConnStr",
              "value": "---"
            },
            {
              "name": "FUNCTION_APP_EDIT_MODE",
              "value": "readwrite"
            },
            {
              "name": "FUNCTIONS_EXTENSION_VERSION",
              "value": "~1"
            },
            {
              "name": "PrivateStorageAccount",
              "value": "[concat('DefaultEndpointsProtocol=https;AccountName=', variables('storageAccountNameApp'), ';AccountKey=', listKeys(variables('storageAccountidApp'),'2015-05-01-preview').key1)]"
            },
            {
              "name": "ScomEventHubConnStr",
              "value": "[listkeys(variables('authScomEventHub'), variables('namespaceEventHubVersion')).primaryConnectionString]"
            },
            {
              "name": "WEBSITE_CONTENTAZUREFILECONNECTIONSTRING",
              "value": "[concat('DefaultEndpointsProtocol=https;AccountName=', variables('storageAccountNamePlatform'), ';AccountKey=', listKeys(variables('storageAccountidPlatform'),'2015-05-01-preview').key1)]"
            },
            {
              "name": "WEBSITE_CONTENTSHARE",
              "value": "[toLower(variables('functionNameHealthCheck'))]"
            },
            {
              "name": "WEBSITE_NODE_DEFAULT_VERSION",
              "value": "6.5.0"
            }
          ]
        }
      },
      "resources": [
        {
          "type": "config",
          "name": "web",
          "apiVersion": "2015-08-01",
          "properties": {
            "scmType": "LocalGit",
            "alwaysOn": true
          },
          "dependsOn": [
            "[concat('Microsoft.Web/sites/', variables('functionNameHealthCheck'))]"
          ]
        }
      ],
      "dependsOn": [
        "[resourceId('Microsoft.Web/serverfarms', variables('appServicePlanMain'))]",
        "[resourceId('Microsoft.Storage/storageAccounts', variables('storageAccountNamePlatform'))]"
      ]
    },
    {
      "type": "Microsoft.Insights/components",
      "name": "[variables('appInsNameHealthCheck')]",
      "apiVersion": "[variables('appInsVersion')]",
      "location": "[variables('appInsRegion')]",
      "properties": {
        "ApplicationId": "[variables('appInsNameHealthCheck')]"
      }
    },
    {
      "type": "Microsoft.Web/sites",
      "kind": "functionapp",
      "name": "[variables('functionAppNameRecoveryProc')]",
      "apiVersion": "[variables('functionAppVersion')]",
      "location": "[resourceGroup().location]",
      "properties": {
        "serverFarmId": "[resourceId('Microsoft.Web/serverfarms', variables('consumptionPlan'))]",
        "clientAffinityEnabled": false,
        "siteConfig": {
          "appSettings": [
            {
              "name": "APPINSIGHTS_INSTRUMENTATIONKEY",
              "value": "[reference(resourceId('Microsoft.Insights/components', variables('appInsNameHealthCheck')), variables('appInsVersion')).InstrumentationKey]"
            },
            {
              "name": "AzureWebJobsStorage",
              "value": "[concat('DefaultEndpointsProtocol=https;AccountName=', variables('storageAccountNamePlatform'), ';AccountKey=', listKeys(variables('storageAccountidPlatform'),'2015-05-01-preview').key1)]"
            },
            {
              "name": "EventHubConnStr",
              "value": "[listkeys(variables('authEventHub'), variables('namespaceEventHubVersion')).primaryConnectionString]"
            },
            {
              "name": "FUNCTION_APP_EDIT_MODE",
              "value": "readwrite"
            },
            {
              "name": "FUNCTIONS_EXTENSION_VERSION",
              "value": "~1"
            },
            {
              "name": "PrivateStorageAccount",
              "value": "[concat('DefaultEndpointsProtocol=https;AccountName=', variables('storageAccountNameApp'), ';AccountKey=', listKeys(variables('storageAccountidApp'),'2015-05-01-preview').key1)]"
            },
            {
              "name": "AzureWebJobsDashboard",
              "value": "[concat('DefaultEndpointsProtocol=https;AccountName=', variables('storageAccountNamePlatform'), ';AccountKey=', listKeys(variables('storageAccountidPlatform'),'2015-05-01-preview').key1)]"
            },
            {
              "name": "WEBSITE_CONTENTAZUREFILECONNECTIONSTRING",
              "value": "[concat('DefaultEndpointsProtocol=https;AccountName=', variables('storageAccountNamePlatform'), ';AccountKey=', listKeys(variables('storageAccountidPlatform'),'2015-05-01-preview').key1)]"
            },
            {
              "name": "WEBSITE_CONTENTSHARE",
              "value": "[toLower(variables('functionAppNameRecoveryProc'))]"
            },
            {
              "name": "WEBSITE_NODE_DEFAULT_VERSION",
              "value": "6.5.0"
            }
          ]
        }
      },
      "resources": [
        {
          "type": "config",
          "name": "web",
          "apiVersion": "2015-08-01",
          "properties": {
            "scmType": "LocalGit"
          },
          "dependsOn": [
            "[concat('Microsoft.Web/sites/', variables('functionAppNameRecoveryProc'))]"
          ]
        }
      ],
      "dependsOn": [
        "[resourceId('Microsoft.Web/serverfarms', variables('consumptionPlan'))]",
        "[resourceId('Microsoft.Storage/storageAccounts', variables('storageAccountNamePlatform'))]"
      ]
    },
    {
      "type": "Microsoft.Devices/IotHubs",
      "sku": {
        "name": "S1",
        "tier": "Standard",
        "capacity": 1
      },
      "name": "[variables('iotHubName')]",
      "apiVersion": "[variables('iotHubVersion')]",
      "location": "[resourceGroup().location]",
      "tags": {},
      "properties": {
        "operationsMonitoringProperties": {
          "events": {
            "None": "None",
            "Connections": "None",
            "DeviceTelemetry": "None",
            "C2DCommands": "None",
            "DeviceIdentityOperations": "None",
            "FileUploadOperations": "None",
            "Routes": "None"
          }
        },
        "ipFilterRules": [],
        "eventHubEndpoints": {
          "events": {
            "retentionTimeInDays": 1,
            "partitionCount": 4,
            "partitionIds": [
              "0",
              "1",
              "2",
              "3"
            ],
            "path": "[variables('iotHubName')]",
            "endpoint": "[concat('sb://', variables('iotHubName'),'.servicebus.windows.net/')]"
          },
          "operationsMonitoringEvents": {
            "retentionTimeInDays": 1,
            "partitionCount": 4,
            "partitionIds": [
              "0",
              "1",
              "2",
              "3"
            ],
            "path": "[concat(variables('iotHubName'),'-operationmonitoring')]",
            "endpoint": "[concat('sb://', variables('iotHubName'),'.servicebus.windows.net/')]"
          }
        },
        "routing": {
          "endpoints": {
            "serviceBusQueues": [],
            "serviceBusTopics": [],
            "eventHubs": [
              {
                "connectionString": "[listkeys(resourceId('Microsoft.EventHub/namespaces/eventhubs/authorizationRules', variables('namespaceInternalEventHub'), parameters('eventHubNameIoTdrive'), variables('sendPolicy')), '2017-04-01').primaryConnectionString]",
                "name": "iot-drive",
                "subscriptionId": "[subscription().subscriptionId]",
                "resourceGroup": "[resourceGroup().name]"
              },
              {
                "connectionString": "[listkeys(resourceId('Microsoft.EventHub/namespaces/eventhubs/authorizationRules', variables('namespaceInternalEventHub'), parameters('eventHubNameIoTmessage'), variables('sendPolicy')), '2017-04-01').primaryConnectionString]",
                "name": "iot-message",
                "subscriptionId": "[subscription().subscriptionId]",
                "resourceGroup": "[resourceGroup().name]"
              }
            ]
          },
          "routes": [
            {
              "name": "drive-message-route",
              "source": "DeviceMessages",
              "condition": "messageType=\"drive\"",
              "endpointNames": [
                "iot-drive"
              ],
              "isEnabled": true
            },
            {
              "name": "other-message-route",
              "source": "DeviceMessages",
              "condition": "messageType <> \"drive\"",
              "endpointNames": [
                "iot-message"
              ],
              "isEnabled": true
            }
          ],
          "fallbackRoute": {
            "name": "$fallback",
            "source": "DeviceMessages",
            "condition": "true",
            "endpointNames": [
              "events"
            ],
            "isEnabled": true
          }
        },
        "storageEndpoints": {
          "$default": {
            "sasTtlAsIso8601": "PT1H",
            "connectionString": "[concat('DefaultEndpointsProtocol=https;AccountName=', variables('storageAccountNameApp'), ';AccountKey=', listKeys(variables('storageAccountidApp'),'2015-05-01-preview').key1)]",
            "containerName": "iothub"
          }
        },
        "enableFileUploadNotifications": true,
        "cloudToDevice": {
          "maxDeliveryCount": 10,
          "defaultTtlAsIso8601": "PT1H",
          "feedback": {
            "lockDurationAsIso8601": "PT1M",
            "ttlAsIso8601": "PT1H",
            "maxDeliveryCount": 10
          }
        },
        "features": "None"
      },
      "dependsOn": []
    },
    {
      "type": "Microsoft.EventHub/namespaces",
      "sku": {
        "name": "Standard"
      },
      "name": "[variables('namespaceInternalEventHub')]",
      "apiVersion": "[variables('namespaceEventHubVersion')]",
      "location": "[resourceGroup().location]",
      "properties": {
        "isAutoInflateEnabled": true,
        "maximumThroughputUnits": 1
      },
      "resources": [
        {
          "type": "eventhubs",
          "name": "[parameters('eventHubNameIoTdrive')]",
          "apiVersion": "[variables('namespaceEventHubVersion')]",
          "properties": {
            "messageRetentionInDays": 7,
            "partitionCount": 32
          },
          "resources": [
            {
              "type": "consumergroups",
              "name": "[parameters('consumerGroupfpt')]",
              "apiVersion": "[variables('namespaceEventHubVersion')]",
              "properties": {
                "userMetadata": "This is a Test Metadata"
              },
              "dependsOn": [
                "[parameters('eventHubNameIoTdrive')]"
              ]
            },
            {
              "type": "consumergroups",
              "name": "[parameters('consumerGroupjenkins')]",
              "apiVersion": "[variables('namespaceEventHubVersion')]",
              "properties": {
                "userMetadata": "This is a Test Metadata"
              },
              "dependsOn": [
                "[parameters('eventHubNameIoTdrive')]"
              ]
            },
            {
              "type": "consumergroups",
              "name": "[parameters('consumerGrouptcs')]",
              "apiVersion": "[variables('namespaceEventHubVersion')]",
              "properties": {
                "userMetadata": "This is a Test Metadata"
              },
              "dependsOn": [
                "[parameters('eventHubNameIoTdrive')]"
              ]
            }
          ],
          "dependsOn": [
            "[concat('Microsoft.EventHub/namespaces/', variables('namespaceInternalEventHub'))]"
          ]
        },
        {
          "type": "eventhubs",
          "name": "[parameters('eventHubNameIoTdrivePoison')]",
          "apiVersion": "[variables('namespaceEventHubVersion')]",
          "properties": {
            "messageRetentionInDays": 7,
            "partitionCount": 32
          },
          "resources": [
          ],
          "dependsOn": [
            "[concat('Microsoft.EventHub/namespaces/', variables('namespaceInternalEventHub'))]"
          ]
        },
        {
          "type": "eventhubs",
          "name": "[parameters('eventHubNameIoTmessage')]",
          "apiVersion": "[variables('namespaceEventHubVersion')]",
          "properties": {
            "messageRetentionInDays": 7,
            "partitionCount": 8
          },
          "resources": [
            {
              "type": "consumergroups",
              "name": "[parameters('consumerGroupfpt')]",
              "apiVersion": "[variables('namespaceEventHubVersion')]",
              "properties": {
                "userMetadata": "This is a Test Metadata"
              },
              "dependsOn": [
                "[parameters('eventHubNameIoTmessage')]"
              ]
            },
            {
              "type": "consumergroups",
              "name": "[parameters('consumerGroupjenkins')]",
              "apiVersion": "[variables('namespaceEventHubVersion')]",
              "properties": {
                "userMetadata": "This is a Test Metadata"
              },
              "dependsOn": [
                "[parameters('eventHubNameIoTmessage')]"
              ]
            },
            {
              "type": "consumergroups",
              "name": "[parameters('consumerGrouptcs')]",
              "apiVersion": "[variables('namespaceEventHubVersion')]",
              "properties": {
                "userMetadata": "This is a Test Metadata"
              },
              "dependsOn": [
                "[parameters('eventHubNameIoTmessage')]"
              ]
            }
          ],
          "dependsOn": [
            "[concat('Microsoft.EventHub/namespaces/', variables('namespaceInternalEventHub'))]"
          ]
        },
        {
          "type": "eventhubs",
          "name": "[parameters('eventHubNameIoTmessagePoison')]",
          "apiVersion": "[variables('namespaceEventHubVersion')]",
          "properties": {
            "messageRetentionInDays": 7,
            "partitionCount": 8
          },
          "resources": [
          ],
          "dependsOn": [
            "[concat('Microsoft.EventHub/namespaces/', variables('namespaceInternalEventHub'))]"
          ]
        },
        {
          "type": "eventhubs",
          "name": "[parameters('eventHubNameTransmission')]",
          "apiVersion": "[variables('namespaceEventHubVersion')]",
          "properties": {
            "messageRetentionInDays": 7,
            "partitionCount": 8
          },
          "resources": [
            {
              "type": "consumergroups",
              "name": "[parameters('consumerGroupfpt')]",
              "apiVersion": "[variables('namespaceEventHubVersion')]",
              "properties": {
                "userMetadata": "This is a Test Metadata"
              },
              "dependsOn": [
                "[parameters('eventHubNameTransmission')]"
              ]
            },
            {
              "type": "consumergroups",
              "name": "[parameters('consumerGroupjenkins')]",
              "apiVersion": "[variables('namespaceEventHubVersion')]",
              "properties": {
                "userMetadata": "This is a Test Metadata"
              },
              "dependsOn": [
                "[parameters('eventHubNameTransmission')]"
              ]
            },
            {
              "type": "consumergroups",
              "name": "[parameters('consumerGrouptcs')]",
              "apiVersion": "[variables('namespaceEventHubVersion')]",
              "properties": {
                "userMetadata": "This is a Test Metadata"
              },
              "dependsOn": [
                "[parameters('eventHubNameTransmission')]"
              ]
            },
            {
              "type": "consumergroups",
              "name": "[parameters('consumerGroupKitting')]",
              "apiVersion": "[variables('namespaceEventHubVersion')]",
              "properties": {
                "userMetadata": "This is a Test Metadata"
              },
              "dependsOn": [
                "[parameters('eventHubNameTransmission')]"
              ]
            }
          ],
          "dependsOn": [
            "[concat('Microsoft.EventHub/namespaces/', variables('namespaceInternalEventHub'))]"
          ]
        },
        {
          "type": "eventhubs",
          "name": "[parameters('eventHubNameTransmissionPoison')]",
          "apiVersion": "[variables('namespaceEventHubVersion')]",
          "properties": {
            "messageRetentionInDays": 7,
            "partitionCount": 8
          },
          "resources": [
          ],
          "dependsOn": [
            "[concat('Microsoft.EventHub/namespaces/', variables('namespaceInternalEventHub'))]"
          ]
        }
      ]
    },
    {
      "type": "Microsoft.EventHub/namespaces/eventhubs/authorizationRules",
      "name": "[variables('routingDrive')]",
      "apiVersion": "[variables('namespaceEventHubVersion')]",
      "location": "[resourceGroup().location]",
      "properties": {
        "rights": [
          "Send"
        ]
      },
      "dependsOn": [
        "[resourceId('Microsoft.EventHub/namespaces', variables('namespaceInternalEventHub'))]",
        "[resourceId('Microsoft.EventHub/namespaces/eventhubs', variables('namespaceInternalEventHub'), parameters('eventHubNameIoTdrive'))]"
      ]
    },
    {
      "type": "Microsoft.EventHub/namespaces/eventhubs/authorizationRules",
      "name": "[variables('routingEvent')]",
      "apiVersion": "[variables('namespaceEventHubVersion')]",
      "location": "[resourceGroup().location]",
      "properties": {
        "rights": [
          "Send"
        ]
      },
      "dependsOn": [
        "[resourceId('Microsoft.EventHub/namespaces', variables('namespaceInternalEventHub'))]",
        "[resourceId('Microsoft.EventHub/namespaces/eventhubs', variables('namespaceInternalEventHub'), parameters('eventHubNameIoTmessage'))]"
      ]
    },
    {
      "type": "Microsoft.EventHub/namespaces",
      "sku": {
        "name": "Standard"
      },
      "name": "[variables('namespaceScomEventHub')]",
      "apiVersion": "[variables('namespaceEventHubVersion')]",
      "location": "[resourceGroup().location]",
      "properties": {
        "isAutoInflateEnabled": true,
        "maximumThroughputUnits": 1
      },
      "resources": [
        {
          "type": "eventhubs",
          "name": "[parameters('eventHubNamedrive')]",
          "apiVersion": "[variables('namespaceEventHubVersion')]",
          "properties": {
            "messageRetentionInDays": 7,
            "partitionCount": 32
          },
          "resources": [
            {
              "type": "consumergroups",
              "name": "[parameters('consumerGroupfpt')]",
              "apiVersion": "[variables('namespaceEventHubVersion')]",
              "properties": {
                "userMetadata": "This is a Test Metadata"
              },
              "dependsOn": [
                "[parameters('eventHubNamedrive')]"
              ]
            },
            {
              "type": "consumergroups",
              "name": "[parameters('consumerGroupjenkins')]",
              "apiVersion": "[variables('namespaceEventHubVersion')]",
              "properties": {
                "userMetadata": "This is a Test Metadata"
              },
              "dependsOn": [
                "[parameters('eventHubNamedrive')]"
              ]
            },
            {
              "type": "consumergroups",
              "name": "[parameters('consumerGrouptcs')]",
              "apiVersion": "[variables('namespaceEventHubVersion')]",
              "properties": {
                "userMetadata": "This is a Test Metadata"
              },
              "dependsOn": [
                "[parameters('eventHubNamedrive')]"
              ]
            },
            {
              "type": "consumergroups",
              "name": "[parameters('consumerGroupHealthcheck')]",
              "apiVersion": "[variables('namespaceEventHubVersion')]",
              "properties": {
                "userMetadata": "This is a Test Metadata"
              },
              "dependsOn": [
                "[parameters('eventHubNamedrive')]"
              ]
            }
          ],
          "dependsOn": [
            "[concat('Microsoft.EventHub/namespaces/', variables('namespaceScomEventHub'))]"
          ]
        },
        {
          "type": "eventhubs",
          "name": "[parameters('eventHubNamemessage')]",
          "apiVersion": "[variables('namespaceEventHubVersion')]",
          "properties": {
            "messageRetentionInDays": 7,
            "partitionCount": 8
          },
          "resources": [
            {
              "type": "consumergroups",
              "name": "[parameters('consumerGroupfpt')]",
              "apiVersion": "[variables('namespaceEventHubVersion')]",
              "properties": {
                "userMetadata": "This is a Test Metadata"
              },
              "dependsOn": [
                "[parameters('eventHubNamemessage')]"
              ]
            },
            {
              "type": "consumergroups",
              "name": "[parameters('consumerGroupjenkins')]",
              "apiVersion": "[variables('namespaceEventHubVersion')]",
              "properties": {
                "userMetadata": "This is a Test Metadata"
              },
              "dependsOn": [
                "[parameters('eventHubNamemessage')]"
              ]
            },
            {
              "type": "consumergroups",
              "name": "[parameters('consumerGrouptcs')]",
              "apiVersion": "[variables('namespaceEventHubVersion')]",
              "properties": {
                "userMetadata": "This is a Test Metadata"
              },
              "dependsOn": [
                "[parameters('eventHubNamemessage')]"
              ]
            },
            {
              "type": "consumergroups",
              "name": "[parameters('consumerGroupHealthcheck')]",
              "apiVersion": "[variables('namespaceEventHubVersion')]",
              "properties": {
                "userMetadata": "This is a Test Metadata"
              },
              "dependsOn": [
                "[parameters('eventHubNamemessage')]"
              ]
            }
          ],
          "dependsOn": [
            "[concat('Microsoft.EventHub/namespaces/', variables('namespaceScomEventHub'))]"
          ]
        }
      ]
    },
    {
      "type": "Microsoft.Storage/storageAccounts",
      "sku": {
        "name": "Standard_LRS"
      },
      "kind": "StorageV2",
      "name": "[variables('storageAccountNamePlatform')]",
      "apiVersion": "[variables('storageAccountVersion')]",
      "location": "[resourceGroup().location]",
      "tags": {},
      "properties": {
        "accessTier": "Hot",
        "supportsHttpsTrafficOnly": true
      },
      "dependsOn": []
    },
    {
      "type": "Microsoft.Storage/storageAccounts",
      "sku": {
        "name": "Standard_LRS"
      },
      "kind": "StorageV2",
      "name": "[variables('storageAccountNameApp')]",
      "apiVersion": "[variables('storageAccountVersion')]",
      "location": "[resourceGroup().location]",
      "tags": {},
      "properties": {
        "accessTier": "Hot",
        "supportsHttpsTrafficOnly": true
      },
      "dependsOn": []
    },
    {
      "type": "Microsoft.DocumentDB/databaseAccounts",
      "name": "[variables('databaseAccountName')]",
      "apiVersion": "[variables('databaseAccountVersion')]",
      "location": "[resourceGroup().location]",
      "properties": {
        "name": "[variables('databaseAccountName')]",
        "databaseAccountOfferType": "Standard",
        "consistencyPolicy": {
          "defaultConsistencyLevel": "Session"
        },
        "locations": [
          {
            "locationName": "[resourceGroup().location]",
            "failoverPriority": 0
          }
        ]
      }
    }
  ]
}