{
  "disabled": false,
  "scriptFile": "..\\bin\\JB2.DriveProc.dll",
  "entryPoint": "JB2.DriveProc.TriggerDetector.Run",
  "bindings": [
    {
      "name": "messages",
      "type": "queueTrigger",
      "direction": "in",
      "queueName": "drive-delay",
      "connection": "PrivateStorageAccount"
    },
    {
      "type": "queue",
      "name": "processingQueue",
      "direction": "out",
      "queueName": "drive-processing",
      "connection": "PrivateStorageAccount"
    },
    {
      "type": "table",
      "name": "inDataFrame",
      "tableName": "SentDataFrame",
      "connection": "PrivateStorageAccount",
      "direction": "in"
    },
    {
      "type": "table",
      "name": "inDeviceInfo",
      "tableName": "DeviceInfo",
      "connection": "PrivateStorageAccount",
      "direction": "in"
    }
  ]
}
