{
  "disabled": false,
  "scriptFile": "..\\bin\\JB2.MainProc.dll",
  "entryPoint": "JB2.MainProc.MessageCollection.Run",
  "bindings": [
    {
      "type": "eventHubTrigger",
      "name": "eventData",
      "direction": "in",
      "path": "iot-message",
      "connection": "EventHubConnStr",
      "consumerGroup": "$Default"
    },
    {
      "type": "table",
      "name": "deviceInfoInput",
      "direction": "in",
      "tableName": "DeviceInfo",
      "connection": "PrivateStorageAccount"
    },
    {
      "type": "table",
      "name": "settingInfoInput",
      "direction": "in",
      "tableName": "SettingInfo",
      "connection": "PrivateStorageAccount"
    },
    {
      "type": "table",
      "name": "dataRequestInput",
      "direction": "in",
      "tableName": "DataRequest",
      "connection": "PrivateStorageAccount"
    },
    {
      "type": "table",
      "name": "latestInfoInput",
      "direction": "in",
      "tableName": "LatestInfo",
      "connection": "PrivateStorageAccount"
    },
    {
      "type": "documentDB",
      "name": "dbClient",
      "databaseName": "jb2-db",
      "createIfNotExists": false,
      "connection": "DocumentDbConnStr",
      "direction": "out"
    },
    {
      "type": "eventHub",
      "name": "transmissionEventHub",
      "connection": "EventHubConnStr",
      "path": "transmission",
      "direction": "out"
    },
    {
      "name": "eventDataQueueItems",
      "type": "queue",
      "direction": "out",
      "queueName": "event-processing",
      "connection": "PrivateStorageAccount"
    },
    {
      "name": "deviceNotificationQueueItems",
      "type": "queue",
      "direction": "out",
      "queueName": "device-notification",
      "connection": "PrivateStorageAccount"
    },
    {
      "name": "photoBlobContainer",
      "type": "blob",
      "direction": "in",
      "path": "photo",
      "connection": "PrivateStorageAccount"
    },
    {
      "name": "iothubBlobContainer",
      "type": "blob",
      "direction": "in",
      "path": "iothub",
      "connection": "PrivateStorageAccount"
    },
    {
      "name": "sensorDataContainer",
      "type": "blob",
      "direction": "in",
      "path": "sensordata",
      "connection": "PrivateStorageAccount"
    },
    {
      "type": "eventHub",
      "name": "outEventHubPoison",
      "path": "iot-message-poison",
      "connection": "EventHubConnStr",
      "direction": "out"
    }
  ]
}

